{"failedCount":4,"prefixedPath":"src\/test\/resources\/FeatureKarate.feature","packageQualifiedName":"src.test.resources.FeatureKarate","loopIndex":-1,"relativePath":"src\/test\/resources\/FeatureKarate.feature","scenarioResults":[{"sectionIndex":0,"stepResults":[{"result":{"nanos":71409300,"millis":71.4093,"status":"passed"},"step":{"background":true,"line":5,"prefix":"*","index":0,"text":"url 'https:\/\/reqres.in\/api'"}},{"result":{"nanos":519900,"millis":0.5199,"status":"passed"},"step":{"line":8,"prefix":"Given","index":0,"text":"path '\/users'"}},{"result":{"nanos":64274672700,"millis":64274.6727,"status":"passed"},"step":{"line":9,"prefix":"When","index":1,"text":"method GET"},"stepLog":"14:26:27.022 request:\n1 > GET https:\/\/reqres.in\/api\/users\n1 > Host: reqres.in\n1 > Connection: Keep-Alive\n1 > User-Agent: Apache-HttpClient\/4.5.13 (Java\/17.0.7)\n1 > Accept-Encoding: gzip,deflate\n\n\n14:27:30.980 response time in milliseconds: 63953\n1 < 200\n1 < Date: Tue, 07 Nov 2023 08:57:30 GMT\n1 < Content-Type: application\/json; charset=utf-8\n1 < Transfer-Encoding: chunked\n1 < Connection: keep-alive\n1 < X-Powered-By: Express\n1 < Access-Control-Allow-Origin: *\n1 < Etag: W\/\"3e4-2RLXvr5wTg9YQ6aH95CkYoFNuO8\"\n1 < Via: 1.1 vegur\n1 < Cache-Control: max-age=14400\n1 < CF-Cache-Status: HIT\n1 < Age: 1362\n1 < Report-To: {\"endpoints\":[{\"url\":\"https:\\\/\\\/a.nel.cloudflare.com\\\/report\\\/v3?s=ll1Ps3QFu2W2K63f2xLyofqsCV1oI3PPmq9y%2BZkgk5ejL8UpDIoOE02eC6WuLEREXd3Gwhc%2BH%2FuQgmyh4AjRVmkib82LiWWpGPwX%2F3UozkwPrnovUoOdmr2LqurcM5NBpYfQ5HpOqw%3D%3D\"}],\"group\":\"cf-nel\",\"max_age\":604800}\n1 < NEL: {\"success_fraction\":0,\"report_to\":\"cf-nel\",\"max_age\":604800}\n1 < Vary: Accept-Encoding\n1 < Server: cloudflare\n1 < CF-RAY: 82245e7ffad44c77-SIN\n{\"page\":1,\"per_page\":6,\"total\":12,\"total_pages\":2,\"data\":[{\"id\":1,\"email\":\"george.bluth@reqres.in\",\"first_name\":\"George\",\"last_name\":\"Bluth\",\"avatar\":\"https:\/\/reqres.in\/img\/faces\/1-image.jpg\"},{\"id\":2,\"email\":\"janet.weaver@reqres.in\",\"first_name\":\"Janet\",\"last_name\":\"Weaver\",\"avatar\":\"https:\/\/reqres.in\/img\/faces\/2-image.jpg\"},{\"id\":3,\"email\":\"emma.wong@reqres.in\",\"first_name\":\"Emma\",\"last_name\":\"Wong\",\"avatar\":\"https:\/\/reqres.in\/img\/faces\/3-image.jpg\"},{\"id\":4,\"email\":\"eve.holt@reqres.in\",\"first_name\":\"Eve\",\"last_name\":\"Holt\",\"avatar\":\"https:\/\/reqres.in\/img\/faces\/4-image.jpg\"},{\"id\":5,\"email\":\"charles.morris@reqres.in\",\"first_name\":\"Charles\",\"last_name\":\"Morris\",\"avatar\":\"https:\/\/reqres.in\/img\/faces\/5-image.jpg\"},{\"id\":6,\"email\":\"tracey.ramos@reqres.in\",\"first_name\":\"Tracey\",\"last_name\":\"Ramos\",\"avatar\":\"https:\/\/reqres.in\/img\/faces\/6-image.jpg\"}],\"support\":{\"url\":\"https:\/\/reqres.in\/#support-heading\",\"text\":\"To keep ReqRes free, contributions towards server costs are appreciated!\"}}\n\n"},{"result":{"nanos":36500,"millis":0.0365,"status":"passed"},"step":{"line":10,"prefix":"Then","index":2,"text":"status 200"}},{"result":{"nanos":54576900,"millis":54.5769,"status":"passed"},"step":{"line":11,"prefix":"And","index":3,"text":"match response.data[*].id == '#[_ > 0]'"}},{"result":{"nanos":2033200,"errorMessage":"match failed: CONTAINS\n  $ | actual does not contain expected | actual array does not contain expected item - @ (LIST:STRING)\n  [\"george.bluth@reqres.in\",\"janet.weaver@reqres.in\",\"emma.wong@reqres.in\",\"eve.holt@reqres.in\",\"charles.morris@reqres.in\",\"tracey.ramos@reqres.in\"]\n  '@'\n\n    $[5] | not equal (STRING:STRING)\n    'tracey.ramos@reqres.in'\n    '@'\n\n    $[4] | not equal (STRING:STRING)\n    'charles.morris@reqres.in'\n    '@'\n\n    $[3] | not equal (STRING:STRING)\n    'eve.holt@reqres.in'\n    '@'\n\n    $[2] | not equal (STRING:STRING)\n    'emma.wong@reqres.in'\n    '@'\n\n    $[1] | not equal (STRING:STRING)\n    'janet.weaver@reqres.in'\n    '@'\n\n    $[0] | not equal (STRING:STRING)\n    'george.bluth@reqres.in'\n    '@'\n\nsrc\/test\/resources\/FeatureKarate.feature:12","millis":2.0332,"status":"failed"},"step":{"line":12,"prefix":"And","index":4,"text":"match response.data[*].email contains '@'"},"stepLog":"14:27:31.073 src\/test\/resources\/FeatureKarate.feature:12\nAnd match response.data[*].email contains '@'\nmatch failed: CONTAINS\n  $ | actual does not contain expected | actual array does not contain expected item - @ (LIST:STRING)\n  [\"george.bluth@reqres.in\",\"janet.weaver@reqres.in\",\"emma.wong@reqres.in\",\"eve.holt@reqres.in\",\"charles.morris@reqres.in\",\"tracey.ramos@reqres.in\"]\n  '@'\n\n    $[5] | not equal (STRING:STRING)\n    'tracey.ramos@reqres.in'\n    '@'\n\n    $[4] | not equal (STRING:STRING)\n    'charles.morris@reqres.in'\n    '@'\n\n    $[3] | not equal (STRING:STRING)\n    'eve.holt@reqres.in'\n    '@'\n\n    $[2] | not equal (STRING:STRING)\n    'emma.wong@reqres.in'\n    '@'\n\n    $[1] | not equal (STRING:STRING)\n    'janet.weaver@reqres.in'\n    '@'\n\n    $[0] | not equal (STRING:STRING)\n    'george.bluth@reqres.in'\n    '@'\n\nsrc\/test\/resources\/FeatureKarate.feature:12\n"}],"line":7,"description":"","durationMillis":64403.2485,"failed":true,"error":"match failed: CONTAINS\n  $ | actual does not contain expected | actual array does not contain expected item - @ (LIST:STRING)\n  [\"george.bluth@reqres.in\",\"janet.weaver@reqres.in\",\"emma.wong@reqres.in\",\"eve.holt@reqres.in\",\"charles.morris@reqres.in\",\"tracey.ramos@reqres.in\"]\n  '@'\n\n    $[5] | not equal (STRING:STRING)\n    'tracey.ramos@reqres.in'\n    '@'\n\n    $[4] | not equal (STRING:STRING)\n    'charles.morris@reqres.in'\n    '@'\n\n    $[3] | not equal (STRING:STRING)\n    'eve.holt@reqres.in'\n    '@'\n\n    $[2] | not equal (STRING:STRING)\n    'emma.wong@reqres.in'\n    '@'\n\n    $[1] | not equal (STRING:STRING)\n    'janet.weaver@reqres.in'\n    '@'\n\n    $[0] | not equal (STRING:STRING)\n    'george.bluth@reqres.in'\n    '@'\n\nsrc\/test\/resources\/FeatureKarate.feature:12","executorName":"main","name":"Get a list of users","startTime":1699347386655,"refId":"[1:7]","endTime":1699347451073,"exampleIndex":-1},{"sectionIndex":1,"stepResults":[{"result":{"nanos":433300,"millis":0.4333,"status":"passed"},"step":{"background":true,"line":5,"prefix":"*","index":0,"text":"url 'https:\/\/reqres.in\/api'"}},{"result":{"nanos":271400,"millis":0.2714,"status":"passed"},"step":{"line":15,"prefix":"Given","index":0,"text":"path '\/users\/2'"}},{"result":{"nanos":63760229300,"millis":63760.2293,"status":"passed"},"step":{"line":16,"prefix":"When","index":1,"text":"method GET"},"stepLog":"14:27:31.081 request:\n1 > GET https:\/\/reqres.in\/api\/users\/2\n1 > Host: reqres.in\n1 > Connection: Keep-Alive\n1 > User-Agent: Apache-HttpClient\/4.5.13 (Java\/17.0.7)\n1 > Accept-Encoding: gzip,deflate\n\n\n14:28:34.838 response time in milliseconds: 63755\n1 < 200\n1 < Date: Tue, 07 Nov 2023 08:58:34 GMT\n1 < Content-Type: application\/json; charset=utf-8\n1 < Transfer-Encoding: chunked\n1 < Connection: keep-alive\n1 < Report-To: {\"group\":\"heroku-nel\",\"max_age\":3600,\"endpoints\":[{\"url\":\"https:\/\/nel.heroku.com\/reports?ts=1699341252&sid=c4c9725f-1ab0-44d8-820f-430df2718e11&s=sONSM2JpJD7T3UK9k6CSsaxS%2F1H9scZUp58Jwv2Aszs%3D\"}]}\n1 < Reporting-Endpoints: heroku-nel=https:\/\/nel.heroku.com\/reports?ts=1699341252&sid=c4c9725f-1ab0-44d8-820f-430df2718e11&s=sONSM2JpJD7T3UK9k6CSsaxS%2F1H9scZUp58Jwv2Aszs%3D\n1 < Nel: {\"report_to\":\"heroku-nel\",\"max_age\":3600,\"success_fraction\":0.005,\"failure_fraction\":0.05,\"response_headers\":[\"Via\"]}\n1 < X-Powered-By: Express\n1 < Access-Control-Allow-Origin: *\n1 < Etag: W\/\"118-pbdwwFo9SKNhD3Lx5iHJyngpq00\"\n1 < Via: 1.1 vegur\n1 < Cache-Control: max-age=14400\n1 < CF-Cache-Status: HIT\n1 < Age: 6262\n1 < Vary: Accept-Encoding\n1 < Server: cloudflare\n1 < CF-RAY: 8224600f5a26892c-SIN\n{\"data\":{\"id\":2,\"email\":\"janet.weaver@reqres.in\",\"first_name\":\"Janet\",\"last_name\":\"Weaver\",\"avatar\":\"https:\/\/reqres.in\/img\/faces\/2-image.jpg\"},\"support\":{\"url\":\"https:\/\/reqres.in\/#support-heading\",\"text\":\"To keep ReqRes free, contributions towards server costs are appreciated!\"}}\n\n"},{"result":{"nanos":27100,"millis":0.0271,"status":"passed"},"step":{"line":17,"prefix":"Then","index":2,"text":"status 200"}},{"result":{"nanos":15387800,"millis":15.3878,"status":"passed"},"step":{"line":18,"prefix":"And","index":3,"text":"match response.data.id == 2"}},{"result":{"nanos":1370200,"millis":1.3702,"status":"passed"},"step":{"line":19,"prefix":"And","index":4,"text":"match response.data.email == 'janet.weaver@reqres.in'"}}],"executorName":"main","line":14,"name":"Get a single user","description":"","durationMillis":63777.7191,"startTime":1699347451079,"failed":false,"refId":"[2:14]","endTime":1699347514857,"exampleIndex":-1},{"sectionIndex":2,"stepResults":[{"result":{"nanos":338400,"millis":0.3384,"status":"passed"},"step":{"background":true,"line":5,"prefix":"*","index":0,"text":"url 'https:\/\/reqres.in\/api'"}},{"result":{"nanos":422100,"millis":0.4221,"status":"passed"},"step":{"line":22,"prefix":"Given","index":0,"text":"path '\/users'"}},{"result":{"nanos":2006100,"millis":2.0061,"status":"passed"},"step":{"line":23,"prefix":"And","index":1,"text":"request { \"name\": \"John Doe\", \"job\": \"Software Engineer\" }"}},{"result":{"nanos":63237373400,"errorMessage":"http call failed after 63185 milliseconds for url: https:\/\/reqres.in\/api\/users\nsrc\/test\/resources\/FeatureKarate.feature:24","millis":63237.3734,"status":"failed"},"step":{"line":24,"prefix":"When","index":2,"text":"method POST"},"stepLog":"14:28:34.923 request:\n1 > POST https:\/\/reqres.in\/api\/users\n1 > Content-Type: application\/json; charset=UTF-8\n1 > Content-Length: 45\n1 > Host: reqres.in\n1 > Connection: Keep-Alive\n1 > User-Agent: Apache-HttpClient\/4.5.13 (Java\/17.0.7)\n1 > Accept-Encoding: gzip,deflate\n{\"name\":\"John Doe\",\"job\":\"Software Engineer\"}\n\n14:29:38.103 java.net.NoRouteToHostException: No route to host: no further information, http call failed after 63185 milliseconds for url: https:\/\/reqres.in\/api\/users\n14:29:38.103 src\/test\/resources\/FeatureKarate.feature:24\nWhen method POST\nhttp call failed after 63185 milliseconds for url: https:\/\/reqres.in\/api\/users\nsrc\/test\/resources\/FeatureKarate.feature:24\n"},{"result":{"nanos":0,"millis":0.0,"status":"skipped"},"step":{"line":25,"prefix":"Then","index":3,"text":"status 201"}},{"result":{"nanos":0,"millis":0.0,"status":"skipped"},"step":{"line":26,"prefix":"And","index":4,"text":"match response.name == 'John Doe'"}},{"result":{"nanos":0,"millis":0.0,"status":"skipped"},"step":{"line":27,"prefix":"And","index":5,"text":"match response.job == 'Software Engineer'"}}],"line":21,"description":"","durationMillis":63240.14,"failed":true,"error":"http call failed after 63185 milliseconds for url: https:\/\/reqres.in\/api\/users\nsrc\/test\/resources\/FeatureKarate.feature:24","executorName":"main","name":"Create a new user","startTime":1699347514862,"refId":"[3:21]","endTime":1699347578103,"exampleIndex":-1},{"sectionIndex":3,"stepResults":[{"result":{"nanos":171800,"millis":0.1718,"status":"passed"},"step":{"background":true,"line":5,"prefix":"*","index":0,"text":"url 'https:\/\/reqres.in\/api'"}},{"result":{"nanos":82300,"millis":0.0823,"status":"passed"},"step":{"line":30,"prefix":"Given","index":0,"text":"path '\/users\/2'"}},{"result":{"nanos":214400,"millis":0.2144,"status":"passed"},"step":{"line":31,"prefix":"And","index":1,"text":"request { \"job\": \"zion resident\" }"}},{"result":{"nanos":2214500,"errorMessage":"http call failed after 2 milliseconds for url: https:\/\/reqres.in\/api\/users\/2\nsrc\/test\/resources\/FeatureKarate.feature:32","millis":2.2145,"status":"failed"},"step":{"line":32,"prefix":"When","index":2,"text":"method PUT"},"stepLog":"14:29:38.108 request:\n1 > PUT https:\/\/reqres.in\/api\/users\/2\n1 > Content-Type: application\/json; charset=UTF-8\n1 > Content-Length: 23\n1 > Host: reqres.in\n1 > Connection: Keep-Alive\n1 > User-Agent: Apache-HttpClient\/4.5.13 (Java\/17.0.7)\n1 > Accept-Encoding: gzip,deflate\n{\"job\":\"zion resident\"}\n\n14:29:38.109 java.net.UnknownHostException: No such host is known (reqres.in), http call failed after 2 milliseconds for url: https:\/\/reqres.in\/api\/users\/2\n14:29:38.110 src\/test\/resources\/FeatureKarate.feature:32\nWhen method PUT\nhttp call failed after 2 milliseconds for url: https:\/\/reqres.in\/api\/users\/2\nsrc\/test\/resources\/FeatureKarate.feature:32\n"},{"result":{"nanos":0,"millis":0.0,"status":"skipped"},"step":{"line":33,"prefix":"Then","index":3,"text":"status 200"}},{"result":{"nanos":0,"millis":0.0,"status":"skipped"},"step":{"line":34,"prefix":"And","index":4,"text":"match response.job == 'zion resident'"}}],"line":29,"description":"","durationMillis":2.683,"failed":true,"error":"http call failed after 2 milliseconds for url: https:\/\/reqres.in\/api\/users\/2\nsrc\/test\/resources\/FeatureKarate.feature:32","executorName":"main","name":"Update user's job","startTime":1699347578107,"refId":"[4:29]","endTime":1699347578110,"exampleIndex":-1},{"sectionIndex":4,"stepResults":[{"result":{"nanos":174900,"millis":0.1749,"status":"passed"},"step":{"background":true,"line":5,"prefix":"*","index":0,"text":"url 'https:\/\/reqres.in\/api'"}},{"result":{"nanos":75300,"millis":0.0753,"status":"passed"},"step":{"line":37,"prefix":"Given","index":0,"text":"path '\/users\/2'"}},{"result":{"nanos":1451000,"errorMessage":"http call failed after 1 milliseconds for url: https:\/\/reqres.in\/api\/users\/2\nsrc\/test\/resources\/FeatureKarate.feature:38","millis":1.451,"status":"failed"},"step":{"line":38,"prefix":"When","index":1,"text":"method DELETE"},"stepLog":"14:29:38.114 request:\n1 > DELETE https:\/\/reqres.in\/api\/users\/2\n1 > Host: reqres.in\n1 > Connection: Keep-Alive\n1 > User-Agent: Apache-HttpClient\/4.5.13 (Java\/17.0.7)\n1 > Accept-Encoding: gzip,deflate\n\n\n14:29:38.114 java.net.UnknownHostException: reqres.in, http call failed after 1 milliseconds for url: https:\/\/reqres.in\/api\/users\/2\n14:29:38.114 src\/test\/resources\/FeatureKarate.feature:38\nWhen method DELETE\nhttp call failed after 1 milliseconds for url: https:\/\/reqres.in\/api\/users\/2\nsrc\/test\/resources\/FeatureKarate.feature:38\n"},{"result":{"nanos":0,"millis":0.0,"status":"skipped"},"step":{"line":39,"prefix":"Then","index":2,"text":"status 204"}}],"line":36,"description":"","durationMillis":1.7012,"failed":true,"error":"http call failed after 1 milliseconds for url: https:\/\/reqres.in\/api\/users\/2\nsrc\/test\/resources\/FeatureKarate.feature:38","executorName":"main","name":"Delete a user","startTime":1699347578112,"refId":"[5:36]","endTime":1699347578114,"exampleIndex":-1}],"callDepth":0,"name":"Testing Reqres.in Endpoints","description":"","resultDate":"2023-11-07 02:29:38 pm","durationMillis":191425.4918,"passedCount":1}