{"failedCount":2,"prefixedPath":"src\/test\/resources\/FeatureKarate.feature","packageQualifiedName":"src.test.resources.FeatureKarate","loopIndex":-1,"relativePath":"src\/test\/resources\/FeatureKarate.feature","scenarioResults":[{"sectionIndex":0,"stepResults":[{"result":{"nanos":67409800,"millis":67.4098,"status":"passed"},"step":{"background":true,"line":5,"prefix":"*","index":0,"text":"url 'https:\/\/reqres.in\/api'"}},{"result":{"nanos":519300,"millis":0.5193,"status":"passed"},"step":{"line":8,"prefix":"Given","index":0,"text":"path '\/users'"}},{"result":{"nanos":64182988300,"millis":64182.9883,"status":"passed"},"step":{"line":9,"prefix":"When","index":1,"text":"method GET"},"stepLog":"12:05:54.295 request:\n1 > GET https:\/\/reqres.in\/api\/users\n1 > Host: reqres.in\n1 > Connection: Keep-Alive\n1 > User-Agent: Apache-HttpClient\/4.5.13 (Java\/17.0.7)\n1 > Accept-Encoding: gzip,deflate\n\n\n12:06:58.176 response time in milliseconds: 63877\n1 < 200\n1 < Date: Tue, 07 Nov 2023 06:36:58 GMT\n1 < Content-Type: application\/json; charset=utf-8\n1 < Transfer-Encoding: chunked\n1 < Connection: keep-alive\n1 < X-Powered-By: Express\n1 < Access-Control-Allow-Origin: *\n1 < Etag: W\/\"3e4-2RLXvr5wTg9YQ6aH95CkYoFNuO8\"\n1 < Via: 1.1 vegur\n1 < Cache-Control: max-age=14400\n1 < CF-Cache-Status: HIT\n1 < Age: 135\n1 < Report-To: {\"endpoints\":[{\"url\":\"https:\\\/\\\/a.nel.cloudflare.com\\\/report\\\/v3?s=xMW%2FD7VnAcSGnW0HlVHiBts9nY0g3K0hp09aFBxVCpQTRu86MjTJZHNGfL2uhc7700AYCrDMVyrosyFr%2BRokTTUTC46IKuT4l02811gWfmAJc%2BkGA8Hx1ULd6WmvHrgqUnvkUTPigA%3D%3D\"}],\"group\":\"cf-nel\",\"max_age\":604800}\n1 < NEL: {\"success_fraction\":0,\"report_to\":\"cf-nel\",\"max_age\":604800}\n1 < Vary: Accept-Encoding\n1 < Server: cloudflare\n1 < CF-RAY: 822390a27c9e89b3-SIN\n{\"page\":1,\"per_page\":6,\"total\":12,\"total_pages\":2,\"data\":[{\"id\":1,\"email\":\"george.bluth@reqres.in\",\"first_name\":\"George\",\"last_name\":\"Bluth\",\"avatar\":\"https:\/\/reqres.in\/img\/faces\/1-image.jpg\"},{\"id\":2,\"email\":\"janet.weaver@reqres.in\",\"first_name\":\"Janet\",\"last_name\":\"Weaver\",\"avatar\":\"https:\/\/reqres.in\/img\/faces\/2-image.jpg\"},{\"id\":3,\"email\":\"emma.wong@reqres.in\",\"first_name\":\"Emma\",\"last_name\":\"Wong\",\"avatar\":\"https:\/\/reqres.in\/img\/faces\/3-image.jpg\"},{\"id\":4,\"email\":\"eve.holt@reqres.in\",\"first_name\":\"Eve\",\"last_name\":\"Holt\",\"avatar\":\"https:\/\/reqres.in\/img\/faces\/4-image.jpg\"},{\"id\":5,\"email\":\"charles.morris@reqres.in\",\"first_name\":\"Charles\",\"last_name\":\"Morris\",\"avatar\":\"https:\/\/reqres.in\/img\/faces\/5-image.jpg\"},{\"id\":6,\"email\":\"tracey.ramos@reqres.in\",\"first_name\":\"Tracey\",\"last_name\":\"Ramos\",\"avatar\":\"https:\/\/reqres.in\/img\/faces\/6-image.jpg\"}],\"support\":{\"url\":\"https:\/\/reqres.in\/#support-heading\",\"text\":\"To keep ReqRes free, contributions towards server costs are appreciated!\"}}\n\n"},{"result":{"nanos":22200,"millis":0.0222,"status":"passed"},"step":{"line":10,"prefix":"Then","index":2,"text":"status 200"}},{"result":{"nanos":55050500,"millis":55.0505,"status":"passed"},"step":{"line":11,"prefix":"And","index":3,"text":"match response.data[*].id == '#[_ > 0]'"}},{"result":{"nanos":1641600,"errorMessage":"match failed: CONTAINS\n  $ | actual does not contain expected | actual array does not contain expected item - @ (LIST:STRING)\n  [\"george.bluth@reqres.in\",\"janet.weaver@reqres.in\",\"emma.wong@reqres.in\",\"eve.holt@reqres.in\",\"charles.morris@reqres.in\",\"tracey.ramos@reqres.in\"]\n  '@'\n\n    $[5] | not equal (STRING:STRING)\n    'tracey.ramos@reqres.in'\n    '@'\n\n    $[4] | not equal (STRING:STRING)\n    'charles.morris@reqres.in'\n    '@'\n\n    $[3] | not equal (STRING:STRING)\n    'eve.holt@reqres.in'\n    '@'\n\n    $[2] | not equal (STRING:STRING)\n    'emma.wong@reqres.in'\n    '@'\n\n    $[1] | not equal (STRING:STRING)\n    'janet.weaver@reqres.in'\n    '@'\n\n    $[0] | not equal (STRING:STRING)\n    'george.bluth@reqres.in'\n    '@'\n\nsrc\/test\/resources\/FeatureKarate.feature:12","millis":1.6416,"status":"failed"},"step":{"line":12,"prefix":"And","index":4,"text":"match response.data[*].email contains '@'"},"stepLog":"12:06:58.271 src\/test\/resources\/FeatureKarate.feature:12\nAnd match response.data[*].email contains '@'\nmatch failed: CONTAINS\n  $ | actual does not contain expected | actual array does not contain expected item - @ (LIST:STRING)\n  [\"george.bluth@reqres.in\",\"janet.weaver@reqres.in\",\"emma.wong@reqres.in\",\"eve.holt@reqres.in\",\"charles.morris@reqres.in\",\"tracey.ramos@reqres.in\"]\n  '@'\n\n    $[5] | not equal (STRING:STRING)\n    'tracey.ramos@reqres.in'\n    '@'\n\n    $[4] | not equal (STRING:STRING)\n    'charles.morris@reqres.in'\n    '@'\n\n    $[3] | not equal (STRING:STRING)\n    'eve.holt@reqres.in'\n    '@'\n\n    $[2] | not equal (STRING:STRING)\n    'emma.wong@reqres.in'\n    '@'\n\n    $[1] | not equal (STRING:STRING)\n    'janet.weaver@reqres.in'\n    '@'\n\n    $[0] | not equal (STRING:STRING)\n    'george.bluth@reqres.in'\n    '@'\n\nsrc\/test\/resources\/FeatureKarate.feature:12\n"}],"line":7,"description":"","durationMillis":64307.6317,"failed":true,"error":"match failed: CONTAINS\n  $ | actual does not contain expected | actual array does not contain expected item - @ (LIST:STRING)\n  [\"george.bluth@reqres.in\",\"janet.weaver@reqres.in\",\"emma.wong@reqres.in\",\"eve.holt@reqres.in\",\"charles.morris@reqres.in\",\"tracey.ramos@reqres.in\"]\n  '@'\n\n    $[5] | not equal (STRING:STRING)\n    'tracey.ramos@reqres.in'\n    '@'\n\n    $[4] | not equal (STRING:STRING)\n    'charles.morris@reqres.in'\n    '@'\n\n    $[3] | not equal (STRING:STRING)\n    'eve.holt@reqres.in'\n    '@'\n\n    $[2] | not equal (STRING:STRING)\n    'emma.wong@reqres.in'\n    '@'\n\n    $[1] | not equal (STRING:STRING)\n    'janet.weaver@reqres.in'\n    '@'\n\n    $[0] | not equal (STRING:STRING)\n    'george.bluth@reqres.in'\n    '@'\n\nsrc\/test\/resources\/FeatureKarate.feature:12","executorName":"main","name":"Get a list of users","startTime":1699338953949,"refId":"[1:7]","endTime":1699339018271,"exampleIndex":-1},{"sectionIndex":1,"stepResults":[{"result":{"nanos":452800,"millis":0.4528,"status":"passed"},"step":{"background":true,"line":5,"prefix":"*","index":0,"text":"url 'https:\/\/reqres.in\/api'"}},{"result":{"nanos":256800,"millis":0.2568,"status":"passed"},"step":{"line":15,"prefix":"Given","index":0,"text":"path '\/users\/2'"}},{"result":{"nanos":63520208100,"millis":63520.2081,"status":"passed"},"step":{"line":16,"prefix":"When","index":1,"text":"method GET"},"stepLog":"12:06:58.279 request:\n1 > GET https:\/\/reqres.in\/api\/users\/2\n1 > Host: reqres.in\n1 > Connection: Keep-Alive\n1 > User-Agent: Apache-HttpClient\/4.5.13 (Java\/17.0.7)\n1 > Accept-Encoding: gzip,deflate\n\n\n12:08:01.795 response time in milliseconds: 63514\n1 < 200\n1 < Date: Tue, 07 Nov 2023 06:38:02 GMT\n1 < Content-Type: application\/json; charset=utf-8\n1 < Transfer-Encoding: chunked\n1 < Connection: keep-alive\n1 < Report-To: {\"group\":\"heroku-nel\",\"max_age\":3600,\"endpoints\":[{\"url\":\"https:\/\/nel.heroku.com\/reports?ts=1699297213&sid=c4c9725f-1ab0-44d8-820f-430df2718e11&s=cwZCJeeaWDdjpxPQ1JP08iVdrAfN71oFSCY7u1wd1zI%3D\"}]}\n1 < Reporting-Endpoints: heroku-nel=https:\/\/nel.heroku.com\/reports?ts=1699297213&sid=c4c9725f-1ab0-44d8-820f-430df2718e11&s=cwZCJeeaWDdjpxPQ1JP08iVdrAfN71oFSCY7u1wd1zI%3D\n1 < Nel: {\"report_to\":\"heroku-nel\",\"max_age\":3600,\"success_fraction\":0.005,\"failure_fraction\":0.05,\"response_headers\":[\"Via\"]}\n1 < X-Powered-By: Express\n1 < Access-Control-Allow-Origin: *\n1 < Etag: W\/\"118-pbdwwFo9SKNhD3Lx5iHJyngpq00\"\n1 < Via: 1.1 vegur\n1 < Cache-Control: max-age=14400\n1 < CF-Cache-Status: HIT\n1 < Age: 5041\n1 < Vary: Accept-Encoding\n1 < Server: cloudflare\n1 < CF-RAY: 822392305f534dc8-SIN\n{\"data\":{\"id\":2,\"email\":\"janet.weaver@reqres.in\",\"first_name\":\"Janet\",\"last_name\":\"Weaver\",\"avatar\":\"https:\/\/reqres.in\/img\/faces\/2-image.jpg\"},\"support\":{\"url\":\"https:\/\/reqres.in\/#support-heading\",\"text\":\"To keep ReqRes free, contributions towards server costs are appreciated!\"}}\n\n"},{"result":{"nanos":35000,"millis":0.035,"status":"passed"},"step":{"line":17,"prefix":"Then","index":2,"text":"status 200"}},{"result":{"nanos":18327400,"millis":18.3274,"status":"passed"},"step":{"line":18,"prefix":"And","index":3,"text":"match response.data.id == 2"}},{"result":{"nanos":1236600,"millis":1.2366,"status":"passed"},"step":{"line":19,"prefix":"And","index":4,"text":"match response.data.email == 'janet.weaver@reqres.in'"}}],"executorName":"main","line":14,"name":"Get a single user","description":"","durationMillis":63540.5167,"startTime":1699339018277,"failed":false,"refId":"[2:14]","endTime":1699339081818,"exampleIndex":-1},{"sectionIndex":2,"stepResults":[{"result":{"nanos":303100,"millis":0.3031,"status":"passed"},"step":{"background":true,"line":5,"prefix":"*","index":0,"text":"url 'https:\/\/reqres.in\/api'"}},{"result":{"nanos":581400,"millis":0.5814,"status":"passed"},"step":{"line":22,"prefix":"Given","index":0,"text":"path '\/users'"}},{"result":{"nanos":2557700,"millis":2.5577,"status":"passed"},"step":{"line":23,"prefix":"And","index":1,"text":"request { \"name\": \"John Doe\", \"job\": \"Software Engineer\" }"}},{"result":{"nanos":64175779500,"millis":64175.7795,"status":"passed"},"step":{"line":24,"prefix":"When","index":2,"text":"method POST"},"stepLog":"12:08:01.887 request:\n1 > POST https:\/\/reqres.in\/api\/users\n1 > Content-Type: application\/json; charset=UTF-8\n1 > Content-Length: 45\n1 > Host: reqres.in\n1 > Connection: Keep-Alive\n1 > User-Agent: Apache-HttpClient\/4.5.13 (Java\/17.0.7)\n1 > Accept-Encoding: gzip,deflate\n{\"name\":\"John Doe\",\"job\":\"Software Engineer\"}\n\n12:09:06.002 response time in milliseconds: 64115\n1 < 201\n1 < Date: Tue, 07 Nov 2023 06:39:06 GMT\n1 < Content-Type: application\/json; charset=utf-8\n1 < Content-Length: 95\n1 < Connection: keep-alive\n1 < Report-To: {\"group\":\"heroku-nel\",\"max_age\":3600,\"endpoints\":[{\"url\":\"https:\/\/nel.heroku.com\/reports?ts=1699339146&sid=c4c9725f-1ab0-44d8-820f-430df2718e11&s=PRYu2xL9OXAHPyD0GTftgFMOpIpBXNS7l53LdJuF7Ss%3D\"}]}\n1 < Reporting-Endpoints: heroku-nel=https:\/\/nel.heroku.com\/reports?ts=1699339146&sid=c4c9725f-1ab0-44d8-820f-430df2718e11&s=PRYu2xL9OXAHPyD0GTftgFMOpIpBXNS7l53LdJuF7Ss%3D\n1 < Nel: {\"report_to\":\"heroku-nel\",\"max_age\":3600,\"success_fraction\":0.005,\"failure_fraction\":0.05,\"response_headers\":[\"Via\"]}\n1 < X-Powered-By: Express\n1 < Access-Control-Allow-Origin: *\n1 < Etag: W\/\"5f-pOJtTM+WOBYnf8Ey8gTMrMi+dlk\"\n1 < Via: 1.1 vegur\n1 < CF-Cache-Status: DYNAMIC\n1 < Server: cloudflare\n1 < CF-RAY: 822393bcdc4d3bec-BOM\n{\"name\":\"John Doe\",\"job\":\"Software Engineer\",\"id\":\"371\",\"createdAt\":\"2023-11-07T06:39:06.049Z\"}\n\n"},{"result":{"nanos":17300,"millis":0.0173,"status":"passed"},"step":{"line":25,"prefix":"Then","index":3,"text":"status 201"}},{"result":{"nanos":1325700,"millis":1.3257,"status":"passed"},"step":{"line":26,"prefix":"And","index":4,"text":"match response.name == 'John Doe'"}},{"result":{"nanos":859200,"millis":0.8592,"status":"passed"},"step":{"line":27,"prefix":"And","index":5,"text":"match response.job == 'Software Engineer'"}}],"executorName":"main","line":21,"name":"Create a new user","description":"","durationMillis":64181.4239,"startTime":1699339081825,"failed":false,"refId":"[3:21]","endTime":1699339146007,"exampleIndex":-1},{"sectionIndex":3,"stepResults":[{"result":{"nanos":149900,"millis":0.1499,"status":"passed"},"step":{"background":true,"line":5,"prefix":"*","index":0,"text":"url 'https:\/\/reqres.in\/api'"}},{"result":{"nanos":71300,"millis":0.0713,"status":"passed"},"step":{"line":30,"prefix":"Given","index":0,"text":"path '\/users\/2'"}},{"result":{"nanos":206500,"millis":0.2065,"status":"passed"},"step":{"line":31,"prefix":"And","index":1,"text":"request { \"job\": \"zion resident\" }"}},{"result":{"nanos":63986748100,"millis":63986.7481,"status":"passed"},"step":{"line":32,"prefix":"When","index":2,"text":"method PUT"},"stepLog":"12:09:06.011 request:\n1 > PUT https:\/\/reqres.in\/api\/users\/2\n1 > Content-Type: application\/json; charset=UTF-8\n1 > Content-Length: 23\n1 > Host: reqres.in\n1 > Connection: Keep-Alive\n1 > User-Agent: Apache-HttpClient\/4.5.13 (Java\/17.0.7)\n1 > Accept-Encoding: gzip,deflate\n{\"job\":\"zion resident\"}\n\n12:10:09.997 response time in milliseconds: 63985\n1 < 200\n1 < Date: Tue, 07 Nov 2023 06:40:10 GMT\n1 < Content-Type: application\/json; charset=utf-8\n1 < Transfer-Encoding: chunked\n1 < Connection: keep-alive\n1 < Report-To: {\"group\":\"heroku-nel\",\"max_age\":3600,\"endpoints\":[{\"url\":\"https:\/\/nel.heroku.com\/reports?ts=1699339210&sid=c4c9725f-1ab0-44d8-820f-430df2718e11&s=RNwJ0gQ5G5niDMNCTrMtBrEUd%2BBVr7Fv8lqyA83YI1o%3D\"}]}\n1 < Reporting-Endpoints: heroku-nel=https:\/\/nel.heroku.com\/reports?ts=1699339210&sid=c4c9725f-1ab0-44d8-820f-430df2718e11&s=RNwJ0gQ5G5niDMNCTrMtBrEUd%2BBVr7Fv8lqyA83YI1o%3D\n1 < Nel: {\"report_to\":\"heroku-nel\",\"max_age\":3600,\"success_fraction\":0.005,\"failure_fraction\":0.05,\"response_headers\":[\"Via\"]}\n1 < X-Powered-By: Express\n1 < Access-Control-Allow-Origin: *\n1 < Etag: W\/\"3e-NO6YvBfIRxIFYO3mcUw4FcwHMt4\"\n1 < Via: 1.1 vegur\n1 < CF-Cache-Status: DYNAMIC\n1 < Vary: Accept-Encoding\n1 < Server: cloudflare\n1 < CF-RAY: 8223954f8b68899e-SIN\n{\"job\":\"zion resident\",\"updatedAt\":\"2023-11-07T06:40:10.426Z\"}\n\n"},{"result":{"nanos":21800,"millis":0.0218,"status":"passed"},"step":{"line":33,"prefix":"Then","index":3,"text":"status 200"}},{"result":{"nanos":1155400,"millis":1.1554,"status":"passed"},"step":{"line":34,"prefix":"And","index":4,"text":"match response.job == 'zion resident'"}}],"executorName":"main","line":29,"name":"Update user's job","description":"","durationMillis":63988.353,"startTime":1699339146010,"failed":false,"refId":"[4:29]","endTime":1699339209999,"exampleIndex":-1},{"sectionIndex":4,"stepResults":[{"result":{"nanos":161000,"millis":0.161,"status":"passed"},"step":{"background":true,"line":5,"prefix":"*","index":0,"text":"url 'https:\/\/reqres.in\/api'"}},{"result":{"nanos":78200,"millis":0.0782,"status":"passed"},"step":{"line":37,"prefix":"Given","index":0,"text":"path '\/users\/2'"}},{"result":{"nanos":21099372700,"errorMessage":"http call failed after 21099 milliseconds for url: https:\/\/reqres.in\/api\/users\/2\nsrc\/test\/resources\/FeatureKarate.feature:38","millis":21099.3727,"status":"failed"},"step":{"line":38,"prefix":"When","index":1,"text":"method DELETE"},"stepLog":"12:10:10.004 request:\n1 > DELETE https:\/\/reqres.in\/api\/users\/2\n1 > Host: reqres.in\n1 > Connection: Keep-Alive\n1 > User-Agent: Apache-HttpClient\/4.5.13 (Java\/17.0.7)\n1 > Accept-Encoding: gzip,deflate\n\n\n12:10:31.102 java.net.NoRouteToHostException: No route to host: no further information, http call failed after 21099 milliseconds for url: https:\/\/reqres.in\/api\/users\/2\n12:10:31.102 src\/test\/resources\/FeatureKarate.feature:38\nWhen method DELETE\nhttp call failed after 21099 milliseconds for url: https:\/\/reqres.in\/api\/users\/2\nsrc\/test\/resources\/FeatureKarate.feature:38\n"},{"result":{"nanos":0,"millis":0.0,"status":"skipped"},"step":{"line":39,"prefix":"Then","index":2,"text":"status 204"}}],"line":36,"description":"","durationMillis":21099.6119,"failed":true,"error":"http call failed after 21099 milliseconds for url: https:\/\/reqres.in\/api\/users\/2\nsrc\/test\/resources\/FeatureKarate.feature:38","executorName":"main","name":"Delete a user","startTime":1699339210002,"refId":"[5:36]","endTime":1699339231102,"exampleIndex":-1}],"callDepth":0,"name":"Testing Reqres.in Endpoints","description":"","resultDate":"2023-11-07 12:10:31 pm","durationMillis":277117.5372,"passedCount":3}